{
	"info": {
		"_postman_id": "c18e2814-79c5-441a-8d3a-4eccc5869db2",
		"name": "tesseract",
		"schema": "https://schema.getpostman.com/json/collection/v2.1.0/collection.json"
	},
	"item": [
		{
			"name": "Book_slot",
			"request": {
				"method": "POST",
				"header": [],
				"body": {
					"mode": "raw",
					"raw": "{\r\n    \"req\":{\r\n        \"emp_id\": 48,\r\n        \"privileged\": false\r\n    }\r\n}",
					"options": {
						"raw": {
							"language": "json"
						}
					}
				},
				"url": {
					"raw": "http://localhost:3000/api/booking_registry/book",
					"protocol": "http",
					"host": [
						"localhost"
					],
					"port": "3000",
					"path": [
						"api",
						"booking_registry",
						"book"
					]
				}
			},
			"response": []
		},
		{
			"name": "Check_slot",
			"protocolProfileBehavior": {
				"disableBodyPruning": true
			},
			"request": {
				"method": "GET",
				"header": [],
				"body": {
					"mode": "raw",
					"raw": "",
					"options": {
						"raw": {
							"language": "json"
						}
					}
				},
				"url": {
					"raw": "http://localhost:3000/api/booking_registry/check_slot/{{id}}",
					"protocol": "http",
					"host": [
						"localhost"
					],
					"port": "3000",
					"path": [
						"api",
						"booking_registry",
						"check_slot",
						"{{id}}"
					]
				}
			},
			"response": []
		},
		{
			"name": "parked",
			"request": {
				"method": "POST",
				"header": [],
				"url": {
					"raw": "http://localhost:3000/api/booking_registry/parked/{{id}}",
					"protocol": "http",
					"host": [
						"localhost"
					],
					"port": "3000",
					"path": [
						"api",
						"booking_registry",
						"parked",
						"{{id}}"
					]
				}
			},
			"response": []
		},
		{
			"name": "Get_all_bookings",
			"request": {
				"method": "GET",
				"header": [],
				"url": {
					"raw": "http://localhost:3000/api/booking_registry",
					"protocol": "http",
					"host": [
						"localhost"
					],
					"port": "3000",
					"path": [
						"api",
						"booking_registry"
					]
				}
			},
			"response": []
		},
		{
			"name": "Total_occupied_slots",
			"request": {
				"method": "GET",
				"header": [],
				"url": {
					"raw": "http://localhost:3000/api/booking_registry/occupied_slots",
					"protocol": "http",
					"host": [
						"localhost"
					],
					"port": "3000",
					"path": [
						"api",
						"booking_registry",
						"occupied_slots"
					]
				}
			},
			"response": []
		},
		{
			"name": "Total_available_slots",
			"request": {
				"method": "GET",
				"header": [],
				"url": {
					"raw": "http://localhost:3000/api/booking_registry/available_slots",
					"protocol": "http",
					"host": [
						"localhost"
					],
					"port": "3000",
					"path": [
						"api",
						"booking_registry",
						"available_slots"
					]
				}
			},
			"response": []
		},
		{
			"name": "Total_registered_users",
			"request": {
				"method": "GET",
				"header": [],
				"url": {
					"raw": "http://localhost:3000/api/user_logs/count",
					"protocol": "http",
					"host": [
						"localhost"
					],
					"port": "3000",
					"path": [
						"api",
						"user_logs",
						"count"
					]
				}
			},
			"response": []
		},
		{
			"name": "Get_waiting_list",
			"request": {
				"method": "GET",
				"header": [],
				"url": {
					"raw": "http://localhost:3000/api/waiting_lists",
					"protocol": "http",
					"host": [
						"localhost"
					],
					"port": "3000",
					"path": [
						"api",
						"waiting_lists"
					]
				}
			},
			"response": []
		},
		{
			"name": "Get_all_users",
			"request": {
				"method": "GET",
				"header": [],
				"url": {
					"raw": "http://localhost:3000/api/user_logs",
					"protocol": "http",
					"host": [
						"localhost"
					],
					"port": "3000",
					"path": [
						"api",
						"user_logs"
					]
				}
			},
			"response": []
		}
	]
}